<svg width="46" height="46" viewBox="0 0 46 46" fill="none" xmlns="http://www.w3.org/2000/svg">
<circle cx="23" cy="23" r="22.6349" fill="#0B1F23" stroke="#216C57" stroke-width="0.730159"/>
<path d="M22.8516 16.9062C23.2136 17.2682 23.2136 17.8551 22.8516 18.2171L18.8724 22.1962H29.6116C30.1235 22.1962 30.5385 22.6112 30.5385 23.1232C30.5385 23.6351 30.1235 24.0501 29.6116 24.0501H18.8724L22.8516 28.0293C23.2136 28.3913 23.2136 28.9782 22.8516 29.3401C22.4896 29.7021 21.9027 29.7021 21.5407 29.3401L15.9792 23.7786C15.8054 23.6048 15.7077 23.369 15.7077 23.1232C15.7077 22.8773 15.8054 22.6416 15.9792 22.4677L21.5407 16.9062C21.9027 16.5442 22.4896 16.5442 22.8516 16.9062Z" fill="white"/>
</svg>
